{
    "prepare_queue": {
        "installed": [],
        "uninstalled": []
    },
    "config_munge": {
        "files": {
            "config.xml": {
                "parents": {
                    "/*": [
                        {
                            "xml": "<feature name=\"Console\"><param name=\"ios-package\" value=\"CDVLogger\" /></feature>",
                            "count": 1
                        },
                        {
                            "xml": "<feature name=\"Device\"><param name=\"ios-package\" value=\"CDVDevice\" /></feature>",
                            "count": 1
                        },
                        {
                            "xml": "<feature name=\"SplashScreen\"><param name=\"ios-package\" value=\"CDVSplashScreen\" /><param name=\"onload\" value=\"true\" /></feature>",
                            "count": 1
                        },
                        {
                            "xml": "<feature name=\"StatusBar\"><param name=\"ios-package\" value=\"CDVStatusBar\" /><param name=\"onload\" value=\"true\" /></feature>",
                            "count": 1
                        },
                        {
                            "xml": "<preference name=\"StatusBarOverlaysWebView\" value=\"true\" />",
                            "count": 1
                        },
                        {
                            "xml": "<preference name=\"StatusBarStyle\" value=\"lightcontent\" />",
                            "count": 1
                        },
                        {
                            "xml": "<feature name=\"Keyboard\"><param name=\"ios-package\" onload=\"true\" value=\"IonicKeyboard\" /></feature>",
                            "count": 1
                        }
                    ]
                }
            },
            "framework": {
                "parents": {
                    "CoreGraphics.framework": [
                        {
                            "xml": false,
                            "count": 1
                        }
                    ]
                }
            }
        }
    },
    "installed_plugins": {
        "cordova-plugin-console": {
            "PACKAGE_NAME": "com.ionicframework.starter"
        },
        "cordova-plugin-device": {
            "PACKAGE_NAME": "com.ionicframework.starter"
        },
        "cordova-plugin-splashscreen": {
            "PACKAGE_NAME": "com.ionicframework.starter"
        },
        "cordova-plugin-statusbar": {
            "PACKAGE_NAME": "com.ionicframework.starter"
        },
        "cordova-plugin-whitelist": {
            "PACKAGE_NAME": "com.ionicframework.starter"
        },
        "ionic-plugin-keyboard": {
            "PACKAGE_NAME": "com.ionicframework.starter"
        },
        "cordova-plugin-network-information": {
            "PACKAGE_NAME": "com.ionicframework.starter"
        },
        "cordova-sqlite-storage": {
            "PACKAGE_NAME": "com.ionicframework.iraqnew331187"
        },
        "com.telerik.plugins.nativepagetransitions": {
            "PACKAGE_NAME": "com.ionicframework.iraqnew331187"
        },
        "com.telerik.plugins.wkwebview": {
            "WKWEBVIEW_SERVER_PORT": "12344",
            "PACKAGE_NAME": "com.ionicframework.iraqnew331187"
        },
        "cordova-plugin-screen-orientation": {
            "PACKAGE_NAME": "com.ionicframework.iraqnew331187"
        },
        "cordova-plugin-app-version": {
            "PACKAGE_NAME": "com.ionicframework.iraqnew331187"
        },
        "cordova-plugin-camera": {
            "PACKAGE_NAME": "com.ionicframework.iraqnew331187"
        },
        "cordova-plugin-geolocation": {
            "PACKAGE_NAME": "com.ionicframework.iraqnew331187"
        }
    },
    "dependent_plugins": {
        "cordova-plugin-webserver": {
            "PACKAGE_NAME": "com.ionicframework.iraqnew331187"
        }
    }
}